%YAML 1.1
%TAG !u! tag:unity3d.com,2011:
--- !u!1 &1585499441590751335
GameObject:
  m_ObjectHideFlags: 0
  m_CorrespondingSourceObject: {fileID: 0}
  m_PrefabInstance: {fileID: 0}
  m_PrefabAsset: {fileID: 0}
  serializedVersion: 6
  m_Component:
  - component: {fileID: 1869552600311206612}
  - component: {fileID: 6232958959622095462}
  - component: {fileID: 8780782557266888043}
  m_Layer: 31
  m_Name: Layer1
  m_TagString: Untagged
  m_Icon: {fileID: 0}
  m_NavMeshLayer: 0
  m_StaticEditorFlags: 0
  m_IsActive: 1
--- !u!4 &1869552600311206612
Transform:
  m_ObjectHideFlags: 0
  m_CorrespondingSourceObject: {fileID: 0}
  m_PrefabInstance: {fileID: 0}
  m_PrefabAsset: {fileID: 0}
  m_GameObject: {fileID: 1585499441590751335}
  m_LocalRotation: {x: -0, y: -0, z: -0, w: 1}
  m_LocalPosition: {x: 0, y: 0, z: 0}
  m_LocalScale: {x: 1, y: 1, z: 1}
  m_Children: []
  m_Father: {fileID: 338054450393768080}
  m_RootOrder: 0
  m_LocalEulerAnglesHint: {x: 0, y: 0, z: 0}
--- !u!1839735485 &6232958959622095462
Tilemap:
  m_ObjectHideFlags: 0
  m_CorrespondingSourceObject: {fileID: 0}
  m_PrefabInstance: {fileID: 0}
  m_PrefabAsset: {fileID: 0}
  m_GameObject: {fileID: 1585499441590751335}
  m_Enabled: 1
  m_Tiles:
  - first: {x: 3, y: -4, z: 0}
    second:
      m_TileIndex: 37
      m_TileSpriteIndex: 37
      m_TileMatrixIndex: 0
      m_TileColorIndex: 0
      m_ObjectToInstantiate: {fileID: 0}
      m_TileFlags: 1
      m_ColliderType: 1
  - first: {x: 4, y: -4, z: 0}
    second:
      m_TileIndex: 38
      m_TileSpriteIndex: 38
      m_TileMatrixIndex: 0
      m_TileColorIndex: 0
      m_ObjectToInstantiate: {fileID: 0}
      m_TileFlags: 1
      m_ColliderType: 1
  - first: {x: -1, y: -3, z: 0}
    second:
      m_TileIndex: 28
      m_TileSpriteIndex: 28
      m_TileMatrixIndex: 0
      m_TileColorIndex: 0
      m_ObjectToInstantiate: {fileID: 0}
      m_TileFlags: 1
      m_ColliderType: 1
  - first: {x: 0, y: -3, z: 0}
    second:
      m_TileIndex: 29
      m_TileSpriteIndex: 29
      m_TileMatrixIndex: 0
      m_TileColorIndex: 0
      m_ObjectToInstantiate: {fileID: 0}
      m_TileFlags: 1
      m_ColliderType: 1
  - first: {x: 1, y: -3, z: 0}
    second:
      m_TileIndex: 30
      m_TileSpriteIndex: 30
      m_TileMatrixIndex: 0
      m_TileColorIndex: 0
      m_ObjectToInstantiate: {fileID: 0}
      m_TileFlags: 1
      m_ColliderType: 1
  - first: {x: 3, y: -3, z: 0}
    second:
      m_TileIndex: 31
      m_TileSpriteIndex: 31
      m_TileMatrixIndex: 0
      m_TileColorIndex: 0
      m_ObjectToInstantiate: {fileID: 0}
      m_TileFlags: 1
      m_ColliderType: 1
  - first: {x: 4, y: -3, z: 0}
    second:
      m_TileIndex: 32
      m_TileSpriteIndex: 32
      m_TileMatrixIndex: 0
      m_TileColorIndex: 0
      m_ObjectToInstantiate: {fileID: 0}
      m_TileFlags: 1
      m_ColliderType: 1
  - first: {x: 5, y: -3, z: 0}
    second:
      m_TileIndex: 33
      m_TileSpriteIndex: 33
      m_TileMatrixIndex: 0
      m_TileColorIndex: 0
      m_ObjectToInstantiate: {fileID: 0}
      m_TileFlags: 1
      m_ColliderType: 1
  - first: {x: 6, y: -3, z: 0}
    second:
      m_TileIndex: 34
      m_TileSpriteIndex: 34
      m_TileMatrixIndex: 0
      m_TileColorIndex: 0
      m_ObjectToInstantiate: {fileID: 0}
      m_TileFlags: 1
      m_ColliderType: 1
  - first: {x: 7, y: -3, z: 0}
    second:
      m_TileIndex: 35
      m_TileSpriteIndex: 35
      m_TileMatrixIndex: 0
      m_TileColorIndex: 0
      m_ObjectToInstantiate: {fileID: 0}
      m_TileFlags: 1
      m_ColliderType: 1
  - first: {x: 8, y: -3, z: 0}
    second:
      m_TileIndex: 36
      m_TileSpriteIndex: 36
      m_TileMatrixIndex: 0
      m_TileColorIndex: 0
      m_ObjectToInstantiate: {fileID: 0}
      m_TileFlags: 1
      m_ColliderType: 1
  - first: {x: -1, y: -2, z: 0}
    second:
      m_TileIndex: 17
      m_TileSpriteIndex: 17
      m_TileMatrixIndex: 0
      m_TileColorIndex: 0
      m_ObjectToInstantiate: {fileID: 0}
      m_TileFlags: 1
      m_ColliderType: 1
  - first: {x: 0, y: -2, z: 0}
    second:
      m_TileIndex: 18
      m_TileSpriteIndex: 18
      m_TileMatrixIndex: 0
      m_TileColorIndex: 0
      m_ObjectToInstantiate: {fileID: 0}
      m_TileFlags: 1
      m_ColliderType: 1
  - first: {x: 1, y: -2, z: 0}
    second:
      m_TileIndex: 19
      m_TileSpriteIndex: 19
      m_TileMatrixIndex: 0
      m_TileColorIndex: 0
      m_ObjectToInstantiate: {fileID: 0}
      m_TileFlags: 1
      m_ColliderType: 1
  - first: {x: 2, y: -2, z: 0}
    second:
      m_TileIndex: 20
      m_TileSpriteIndex: 20
      m_TileMatrixIndex: 0
      m_TileColorIndex: 0
      m_ObjectToInstantiate: {fileID: 0}
      m_TileFlags: 1
      m_ColliderType: 1
  - first: {x: 3, y: -2, z: 0}
    second:
      m_TileIndex: 21
      m_TileSpriteIndex: 21
      m_TileMatrixIndex: 0
      m_TileColorIndex: 0
      m_ObjectToInstantiate: {fileID: 0}
      m_TileFlags: 1
      m_ColliderType: 1
  - first: {x: 4, y: -2, z: 0}
    second:
      m_TileIndex: 22
      m_TileSpriteIndex: 22
      m_TileMatrixIndex: 0
      m_TileColorIndex: 0
      m_ObjectToInstantiate: {fileID: 0}
      m_TileFlags: 1
      m_ColliderType: 1
  - first: {x: 5, y: -2, z: 0}
    second:
      m_TileIndex: 23
      m_TileSpriteIndex: 23
      m_TileMatrixIndex: 0
      m_TileColorIndex: 0
      m_ObjectToInstantiate: {fileID: 0}
      m_TileFlags: 1
      m_ColliderType: 1
  - first: {x: 6, y: -2, z: 0}
    second:
      m_TileIndex: 24
      m_TileSpriteIndex: 24
      m_TileMatrixIndex: 0
      m_TileColorIndex: 0
      m_ObjectToInstantiate: {fileID: 0}
      m_TileFlags: 1
      m_ColliderType: 1
  - first: {x: 7, y: -2, z: 0}
    second:
      m_TileIndex: 25
      m_TileSpriteIndex: 25
      m_TileMatrixIndex: 0
      m_TileColorIndex: 0
      m_ObjectToInstantiate: {fileID: 0}
      m_TileFlags: 1
      m_ColliderType: 1
  - first: {x: 8, y: -2, z: 0}
    second:
      m_TileIndex: 26
      m_TileSpriteIndex: 26
      m_TileMatrixIndex: 0
      m_TileColorIndex: 0
      m_ObjectToInstantiate: {fileID: 0}
      m_TileFlags: 1
      m_ColliderType: 1
  - first: {x: 9, y: -2, z: 0}
    second:
      m_TileIndex: 27
      m_TileSpriteIndex: 27
      m_TileMatrixIndex: 0
      m_TileColorIndex: 0
      m_ObjectToInstantiate: {fileID: 0}
      m_TileFlags: 1
      m_ColliderType: 1
  - first: {x: -1, y: -1, z: 0}
    second:
      m_TileIndex: 6
      m_TileSpriteIndex: 6
      m_TileMatrixIndex: 0
      m_TileColorIndex: 0
      m_ObjectToInstantiate: {fileID: 0}
      m_TileFlags: 1
      m_ColliderType: 1
  - first: {x: 0, y: -1, z: 0}
    second:
      m_TileIndex: 7
      m_TileSpriteIndex: 7
      m_TileMatrixIndex: 0
      m_TileColorIndex: 0
      m_ObjectToInstantiate: {fileID: 0}
      m_TileFlags: 1
      m_ColliderType: 1
  - first: {x: 1, y: -1, z: 0}
    second:
      m_TileIndex: 8
      m_TileSpriteIndex: 8
      m_TileMatrixIndex: 0
      m_TileColorIndex: 0
      m_ObjectToInstantiate: {fileID: 0}
      m_TileFlags: 1
      m_ColliderType: 1
  - first: {x: 2, y: -1, z: 0}
    second:
      m_TileIndex: 9
      m_TileSpriteIndex: 9
      m_TileMatrixIndex: 0
      m_TileColorIndex: 0
      m_ObjectToInstantiate: {fileID: 0}
      m_TileFlags: 1
      m_ColliderType: 1
  - first: {x: 3, y: -1, z: 0}
    second:
      m_TileIndex: 10
      m_TileSpriteIndex: 10
      m_TileMatrixIndex: 0
      m_TileColorIndex: 0
      m_ObjectToInstantiate: {fileID: 0}
      m_TileFlags: 1
      m_ColliderType: 1
  - first: {x: 4, y: -1, z: 0}
    second:
      m_TileIndex: 11
      m_TileSpriteIndex: 11
      m_TileMatrixIndex: 0
      m_TileColorIndex: 0
      m_ObjectToInstantiate: {fileID: 0}
      m_TileFlags: 1
      m_ColliderType: 1
  - first: {x: 5, y: -1, z: 0}
    second:
      m_TileIndex: 12
      m_TileSpriteIndex: 12
      m_TileMatrixIndex: 0
      m_TileColorIndex: 0
      m_ObjectToInstantiate: {fileID: 0}
      m_TileFlags: 1
      m_ColliderType: 1
  - first: {x: 6, y: -1, z: 0}
    second:
      m_TileIndex: 13
      m_TileSpriteIndex: 13
      m_TileMatrixIndex: 0
      m_TileColorIndex: 0
      m_ObjectToInstantiate: {fileID: 0}
      m_TileFlags: 1
      m_ColliderType: 1
  - first: {x: 7, y: -1, z: 0}
    second:
      m_TileIndex: 14
      m_TileSpriteIndex: 14
      m_TileMatrixIndex: 0
      m_TileColorIndex: 0
      m_ObjectToInstantiate: {fileID: 0}
      m_TileFlags: 1
      m_ColliderType: 1
  - first: {x: 8, y: -1, z: 0}
    second:
      m_TileIndex: 15
      m_TileSpriteIndex: 15
      m_TileMatrixIndex: 0
      m_TileColorIndex: 0
      m_ObjectToInstantiate: {fileID: 0}
      m_TileFlags: 1
      m_ColliderType: 1
  - first: {x: 9, y: -1, z: 0}
    second:
      m_TileIndex: 16
      m_TileSpriteIndex: 16
      m_TileMatrixIndex: 0
      m_TileColorIndex: 0
      m_ObjectToInstantiate: {fileID: 0}
      m_TileFlags: 1
      m_ColliderType: 1
  - first: {x: -1, y: 0, z: 0}
    second:
      m_TileIndex: 0
      m_TileSpriteIndex: 0
      m_TileMatrixIndex: 0
      m_TileColorIndex: 0
      m_ObjectToInstantiate: {fileID: 0}
      m_TileFlags: 1
      m_ColliderType: 1
  - first: {x: 0, y: 0, z: 0}
    second:
      m_TileIndex: 1
      m_TileSpriteIndex: 1
      m_TileMatrixIndex: 0
      m_TileColorIndex: 0
      m_ObjectToInstantiate: {fileID: 0}
      m_TileFlags: 1
      m_ColliderType: 1
  - first: {x: 1, y: 0, z: 0}
    second:
      m_TileIndex: 2
      m_TileSpriteIndex: 2
      m_TileMatrixIndex: 0
      m_TileColorIndex: 0
      m_ObjectToInstantiate: {fileID: 0}
      m_TileFlags: 1
      m_ColliderType: 1
  - first: {x: 2, y: 0, z: 0}
    second:
      m_TileIndex: 3
      m_TileSpriteIndex: 3
      m_TileMatrixIndex: 0
      m_TileColorIndex: 0
      m_ObjectToInstantiate: {fileID: 0}
      m_TileFlags: 1
      m_ColliderType: 1
  - first: {x: 3, y: 0, z: 0}
    second:
      m_TileIndex: 4
      m_TileSpriteIndex: 4
      m_TileMatrixIndex: 0
      m_TileColorIndex: 0
      m_ObjectToInstantiate: {fileID: 0}
      m_TileFlags: 1
      m_ColliderType: 1
  - first: {x: 4, y: 0, z: 0}
    second:
      m_TileIndex: 5
      m_TileSpriteIndex: 5
      m_TileMatrixIndex: 0
      m_TileColorIndex: 0
      m_ObjectToInstantiate: {fileID: 0}
      m_TileFlags: 1
      m_ColliderType: 1
  m_AnimatedTiles: {}
  m_TileAssetArray:
  - m_RefCount: 1
    m_Data: {fileID: 11400000, guid: 788fdc1465f982c4e8d24d384e16d1ba, type: 2}
  - m_RefCount: 1
    m_Data: {fileID: 11400000, guid: 56cdb31dbf0e0ec438fccfdcc7faf841, type: 2}
  - m_RefCount: 1
    m_Data: {fileID: 11400000, guid: e7b83c8794e65ce439da44988ae48a0e, type: 2}
  - m_RefCount: 1
    m_Data: {fileID: 11400000, guid: 6ff5324cdba4bad4595f845910b86383, type: 2}
  - m_RefCount: 1
    m_Data: {fileID: 11400000, guid: 801221ffd19625547afd9f42d67b07ae, type: 2}
  - m_RefCount: 1
    m_Data: {fileID: 11400000, guid: 1ee69fa563d9ce74881f8e81e260cf07, type: 2}
  - m_RefCount: 1
    m_Data: {fileID: 11400000, guid: c0780a4bde318ea4bb987141fa2bccf5, type: 2}
  - m_RefCount: 1
    m_Data: {fileID: 11400000, guid: de08cfc877e709f4b9863318b1cef511, type: 2}
  - m_RefCount: 1
    m_Data: {fileID: 11400000, guid: 9502297ca8c9b2c48adcad90e7687bee, type: 2}
  - m_RefCount: 1
    m_Data: {fileID: 11400000, guid: a753734c9ea9384479e3d9407765158f, type: 2}
  - m_RefCount: 1
    m_Data: {fileID: 11400000, guid: aa0b59eca2d544c41873e1c615dd408c, type: 2}
  - m_RefCount: 1
    m_Data: {fileID: 11400000, guid: 4a57cdd31a070ca42bf56052a5449eee, type: 2}
  - m_RefCount: 1
    m_Data: {fileID: 11400000, guid: c3f3ca5717b60a04284603c5fed0d118, type: 2}
  - m_RefCount: 1
    m_Data: {fileID: 11400000, guid: ce53e16eb8481e242a9a90a0f85c6362, type: 2}
  - m_RefCount: 1
    m_Data: {fileID: 11400000, guid: 2843041373b51b9489a746ff1d33d093, type: 2}
  - m_RefCount: 1
    m_Data: {fileID: 11400000, guid: b9b2a98452f49df41b3b8f34a3c9786a, type: 2}
  - m_RefCount: 1
    m_Data: {fileID: 11400000, guid: cecf3d851513c3f48ab9abc5a2a6f6cd, type: 2}
  - m_RefCount: 1
    m_Data: {fileID: 11400000, guid: bde6d8246d4d6cd40a3e05c5ce1132a8, type: 2}
  - m_RefCount: 1
    m_Data: {fileID: 11400000, guid: 0621e49ec6907f242900f7af8fdbdd2d, type: 2}
  - m_RefCount: 1
    m_Data: {fileID: 11400000, guid: 74f49f8884ee2fa47ad4e2a1dff91dd2, type: 2}
  - m_RefCount: 1
    m_Data: {fileID: 11400000, guid: 6e62b0577c55d1d4db606eea42698793, type: 2}
  - m_RefCount: 1
    m_Data: {fileID: 11400000, guid: 8fb429894a5461f42b861c88115af648, type: 2}
  - m_RefCount: 1
    m_Data: {fileID: 11400000, guid: 3e1354dce0d415e4d85b173338894c47, type: 2}
  - m_RefCount: 1
    m_Data: {fileID: 11400000, guid: ab54ca3cfa83b4748b442884d08321cd, type: 2}
  - m_RefCount: 1
    m_Data: {fileID: 11400000, guid: 58a69bd8144c5704b98d8a28bd51cbe7, type: 2}
  - m_RefCount: 1
    m_Data: {fileID: 11400000, guid: 67af7011ab1d06c40b6687eba273fb97, type: 2}
  - m_RefCount: 1
    m_Data: {fileID: 11400000, guid: 4f11918ba061cda4f9cc4aac0d3090ab, type: 2}
  - m_RefCount: 1
    m_Data: {fileID: 11400000, guid: 49930e50b35a2084190de8a52ff510a7, type: 2}
  - m_RefCount: 1
    m_Data: {fileID: 11400000, guid: d3e023f9e6bba4548b4322ae94315551, type: 2}
  - m_RefCount: 1
    m_Data: {fileID: 11400000, guid: 254f2f426dfac3a48af5933fe1fffb13, type: 2}
  - m_RefCount: 1
    m_Data: {fileID: 11400000, guid: 318702d2d5943e0429ce3d35ee9fad2f, type: 2}
  - m_RefCount: 1
    m_Data: {fileID: 11400000, guid: b790f6ae3c46d58448379cde450815ca, type: 2}
  - m_RefCount: 1
    m_Data: {fileID: 11400000, guid: 56867dd488c3cef4d9f1fad61edd8853, type: 2}
  - m_RefCount: 1
    m_Data: {fileID: 11400000, guid: 0f834f2c5fcedb142b2dedb21e2baca3, type: 2}
  - m_RefCount: 1
    m_Data: {fileID: 11400000, guid: fcc494bd83e8b564daae4d2ef66ea2fc, type: 2}
  - m_RefCount: 1
    m_Data: {fileID: 11400000, guid: 68bc625d674939c4baad47bc34e304ed, type: 2}
  - m_RefCount: 1
    m_Data: {fileID: 11400000, guid: c047d6e23ec46054a90859c61ad1e983, type: 2}
  - m_RefCount: 1
    m_Data: {fileID: 11400000, guid: d09ffa50558c12e4e9afbba704e3b1fd, type: 2}
  - m_RefCount: 1
    m_Data: {fileID: 11400000, guid: 9802523d82d036b43b7d12ddda6348d2, type: 2}
  m_TileSpriteArray:
  - m_RefCount: 1
    m_Data: {fileID: 21300004, guid: 81b2290aa59f718469317fc934cc6c9f, type: 3}
  - m_RefCount: 1
    m_Data: {fileID: 21300006, guid: 81b2290aa59f718469317fc934cc6c9f, type: 3}
  - m_RefCount: 1
    m_Data: {fileID: 21300008, guid: 81b2290aa59f718469317fc934cc6c9f, type: 3}
  - m_RefCount: 1
    m_Data: {fileID: 21300010, guid: 81b2290aa59f718469317fc934cc6c9f, type: 3}
  - m_RefCount: 1
    m_Data: {fileID: 21300012, guid: 81b2290aa59f718469317fc934cc6c9f, type: 3}
  - m_RefCount: 1
    m_Data: {fileID: 21300014, guid: 81b2290aa59f718469317fc934cc6c9f, type: 3}
  - m_RefCount: 1
    m_Data: {fileID: 21300016, guid: 81b2290aa59f718469317fc934cc6c9f, type: 3}
  - m_RefCount: 1
    m_Data: {fileID: 21300018, guid: 81b2290aa59f718469317fc934cc6c9f, type: 3}
  - m_RefCount: 1
    m_Data: {fileID: 21300020, guid: 81b2290aa59f718469317fc934cc6c9f, type: 3}
  - m_RefCount: 1
    m_Data: {fileID: 21300022, guid: 81b2290aa59f718469317fc934cc6c9f, type: 3}
  - m_RefCount: 1
    m_Data: {fileID: 21300024, guid: 81b2290aa59f718469317fc934cc6c9f, type: 3}
  - m_RefCount: 1
    m_Data: {fileID: 21300026, guid: 81b2290aa59f718469317fc934cc6c9f, type: 3}
  - m_RefCount: 1
    m_Data: {fileID: 21300028, guid: 81b2290aa59f718469317fc934cc6c9f, type: 3}
  - m_RefCount: 1
    m_Data: {fileID: 21300030, guid: 81b2290aa59f718469317fc934cc6c9f, type: 3}
  - m_RefCount: 1
    m_Data: {fileID: 21300032, guid: 81b2290aa59f718469317fc934cc6c9f, type: 3}
  - m_RefCount: 1
    m_Data: {fileID: 21300034, guid: 81b2290aa59f718469317fc934cc6c9f, type: 3}
  - m_RefCount: 1
    m_Data: {fileID: 21300036, guid: 81b2290aa59f718469317fc934cc6c9f, type: 3}
  - m_RefCount: 1
    m_Data: {fileID: 21300038, guid: 81b2290aa59f718469317fc934cc6c9f, type: 3}
  - m_RefCount: 1
    m_Data: {fileID: 21300040, guid: 81b2290aa59f718469317fc934cc6c9f, type: 3}
  - m_RefCount: 1
    m_Data: {fileID: 21300042, guid: 81b2290aa59f718469317fc934cc6c9f, type: 3}
  - m_RefCount: 1
    m_Data: {fileID: 21300044, guid: 81b2290aa59f718469317fc934cc6c9f, type: 3}
  - m_RefCount: 1
    m_Data: {fileID: 21300046, guid: 81b2290aa59f718469317fc934cc6c9f, type: 3}
  - m_RefCount: 1
    m_Data: {fileID: 21300048, guid: 81b2290aa59f718469317fc934cc6c9f, type: 3}
  - m_RefCount: 1
    m_Data: {fileID: 21300050, guid: 81b2290aa59f718469317fc934cc6c9f, type: 3}
  - m_RefCount: 1
    m_Data: {fileID: 21300052, guid: 81b2290aa59f718469317fc934cc6c9f, type: 3}
  - m_RefCount: 1
    m_Data: {fileID: 21300054, guid: 81b2290aa59f718469317fc934cc6c9f, type: 3}
  - m_RefCount: 1
    m_Data: {fileID: 21300056, guid: 81b2290aa59f718469317fc934cc6c9f, type: 3}
  - m_RefCount: 1
    m_Data: {fileID: 21300058, guid: 81b2290aa59f718469317fc934cc6c9f, type: 3}
  - m_RefCount: 1
    m_Data: {fileID: 21300060, guid: 81b2290aa59f718469317fc934cc6c9f, type: 3}
  - m_RefCount: 1
    m_Data: {fileID: 21300062, guid: 81b2290aa59f718469317fc934cc6c9f, type: 3}
  - m_RefCount: 1
    m_Data: {fileID: 21300064, guid: 81b2290aa59f718469317fc934cc6c9f, type: 3}
  - m_RefCount: 1
    m_Data: {fileID: 21300066, guid: 81b2290aa59f718469317fc934cc6c9f, type: 3}
  - m_RefCount: 1
    m_Data: {fileID: 21300068, guid: 81b2290aa59f718469317fc934cc6c9f, type: 3}
  - m_RefCount: 1
    m_Data: {fileID: 21300070, guid: 81b2290aa59f718469317fc934cc6c9f, type: 3}
  - m_RefCount: 1
    m_Data: {fileID: 21300072, guid: 81b2290aa59f718469317fc934cc6c9f, type: 3}
  - m_RefCount: 1
    m_Data: {fileID: 21300074, guid: 81b2290aa59f718469317fc934cc6c9f, type: 3}
  - m_RefCount: 1
    m_Data: {fileID: 21300076, guid: 81b2290aa59f718469317fc934cc6c9f, type: 3}
  - m_RefCount: 1
    m_Data: {fileID: 21300078, guid: 81b2290aa59f718469317fc934cc6c9f, type: 3}
  - m_RefCount: 1
    m_Data: {fileID: 21300080, guid: 81b2290aa59f718469317fc934cc6c9f, type: 3}
  m_TileMatrixArray:
  - m_RefCount: 39
    m_Data:
      e00: 1
      e01: 0
      e02: 0
      e03: 0
      e10: 0
      e11: 1
      e12: 0
      e13: 0
      e20: 0
      e21: 0
      e22: 1
      e23: 0
      e30: 0
      e31: 0
      e32: 0
      e33: 1
  m_TileColorArray:
  - m_RefCount: 39
    m_Data: {r: 1, g: 1, b: 1, a: 1}
  m_AnimationFrameRate: 1
  m_Color: {r: 1, g: 1, b: 1, a: 1}
  m_Origin: {x: -1, y: -4, z: 0}
  m_Size: {x: 11, y: 5, z: 1}
  m_TileAnchor: {x: 0.5, y: 0.5, z: 0}
  m_TileOrientation: 0
  m_TileOrientationMatrix:
    e00: 1
    e01: 0
    e02: 0
    e03: 0
    e10: 0
    e11: 1
    e12: 0
    e13: 0
    e20: 0
    e21: 0
    e22: 1
    e23: 0
    e30: 0
    e31: 0
    e32: 0
    e33: 1
--- !u!483693784 &8780782557266888043
TilemapRenderer:
  m_ObjectHideFlags: 0
  m_CorrespondingSourceObject: {fileID: 0}
  m_PrefabInstance: {fileID: 0}
  m_PrefabAsset: {fileID: 0}
  m_GameObject: {fileID: 1585499441590751335}
  m_Enabled: 0
  m_CastShadows: 0
  m_ReceiveShadows: 0
  m_DynamicOccludee: 0
  m_MotionVectors: 1
  m_LightProbeUsage: 0
  m_ReflectionProbeUsage: 0
  m_RenderingLayerMask: 1
  m_RendererPriority: 0
  m_Materials:
  - {fileID: 10754, guid: 0000000000000000f000000000000000, type: 0}
  m_StaticBatchInfo:
    firstSubMesh: 0
    subMeshCount: 0
  m_StaticBatchRoot: {fileID: 0}
  m_ProbeAnchor: {fileID: 0}
  m_LightProbeVolumeOverride: {fileID: 0}
  m_ScaleInLightmap: 1
  m_PreserveUVs: 0
  m_IgnoreNormalsForChartDetection: 0
  m_ImportantGI: 0
  m_StitchLightmapSeams: 0
  m_SelectedEditorRenderState: 0
  m_MinimumChartSize: 4
  m_AutoUVMaxDistance: 0.5
  m_AutoUVMaxAngle: 89
  m_LightmapParameters: {fileID: 0}
  m_SortingLayerID: 0
  m_SortingLayer: 0
  m_SortingOrder: 0
  m_ChunkSize: {x: 32, y: 32, z: 32}
  m_ChunkCullingBounds: {x: 0, y: 0, z: 0}
  m_MaxChunkCount: 16
  m_MaxFrameAge: 16
  m_SortOrder: 0
  m_Mode: 0
  m_DetectChunkCullingBounds: 0
  m_MaskInteraction: 0
--- !u!1 &5094633546226033291
GameObject:
  m_ObjectHideFlags: 0
  m_CorrespondingSourceObject: {fileID: 0}
  m_PrefabInstance: {fileID: 0}
  m_PrefabAsset: {fileID: 0}
  serializedVersion: 6
  m_Component:
  - component: {fileID: 338054450393768080}
  - component: {fileID: 2174979236654792291}
  m_Layer: 31
  m_Name: NovoOrange
  m_TagString: Untagged
  m_Icon: {fileID: 0}
  m_NavMeshLayer: 0
  m_StaticEditorFlags: 0
  m_IsActive: 1
--- !u!4 &338054450393768080
Transform:
  m_ObjectHideFlags: 0
  m_CorrespondingSourceObject: {fileID: 0}
  m_PrefabInstance: {fileID: 0}
  m_PrefabAsset: {fileID: 0}
  m_GameObject: {fileID: 5094633546226033291}
  m_LocalRotation: {x: 0, y: 0, z: 0, w: 1}
  m_LocalPosition: {x: 0, y: 0, z: 0}
  m_LocalScale: {x: 1, y: 1, z: 1}
  m_Children:
  - {fileID: 1869552600311206612}
  m_Father: {fileID: 0}
  m_RootOrder: 0
  m_LocalEulerAnglesHint: {x: 0, y: 0, z: 0}
--- !u!156049354 &2174979236654792291
Grid:
  m_ObjectHideFlags: 0
  m_CorrespondingSourceObject: {fileID: 0}
  m_PrefabInstance: {fileID: 0}
  m_PrefabAsset: {fileID: 0}
  m_GameObject: {fileID: 5094633546226033291}
  m_Enabled: 1
  m_CellSize: {x: 1, y: 1, z: 0}
  m_CellGap: {x: 0, y: 0, z: 0}
  m_CellLayout: 0
  m_CellSwizzle: 0
--- !u!114 &114951422420827000
MonoBehaviour:
  m_ObjectHideFlags: 0
  m_CorrespondingSourceObject: {fileID: 0}
  m_PrefabInstance: {fileID: 0}
  m_PrefabAsset: {fileID: 0}
  m_GameObject: {fileID: 0}
  m_Enabled: 1
  m_EditorHideFlags: 0
  m_Script: {fileID: 12395, guid: 0000000000000000e000000000000000, type: 0}
  m_Name: Palette Settings
  m_EditorClassIdentifier: 
  cellSizing: 0
